{
  "Layers": [
    {
      "Name": "Base",
      "Category": "Body",
      "Part": "Lean Male",
      "Offsets": {},
      "Visible": true,
      "LayerSettings": {
        "ff0000ff": {
          "Hue": 0,
          "Saturation": 0,
          "Lightness": 0,
          "Color": "#FFF0F8FF"
        }
      }
    },
    {
      "Name": "Head",
      "Category": "Head",
      "Part": "Head03",
      "Offsets": {},
      "Visible": true,
      "LayerSettings": {
        "ff0000ff": {
          "Hue": 0,
          "Saturation": 0,
          "Lightness": 0,
          "Color": "#FFF0F8FF"
        }
      }
    },
    {
      "Name": "eyebrows",
      "Category": "Eyebrows",
      "Part": "Brow05",
      "Offsets": {},
      "Visible": true,
      "LayerSettings": {
        "ff00ff00": {
          "Hue": 0,
          "Saturation": 0,
          "Lightness": 0,
          "Color": "#FFF0F8FF"
        },
        "ffff0000": {
          "Hue": 0,
          "Saturation": 0,
          "Lightness": 0,
          "Color": "#FF01FFC9"
        },
        "ff0000ff": {
          "Hue": 0,
          "Saturation": 0,
          "Lightness": 0,
          "Color": "#FF8A2BE2"
        }
      }
    },
    {
      "Name": "Eyes",
      "Category": "Eyes",
      "Part": "Eye05",
      "Offsets": {},
      "Visible": true,
      "LayerSettings": {
        "ff0000ff": {
          "Hue": 0,
          "Saturation": 0,
          "Lightness": 0,
          "Color": "#FF6495ED"
        },
        "ffff0000": {
          "Hue": 0,
          "Saturation": 0,
          "Lightness": 0,
          "Color": "#FFF0F8FF"
        },
        "ff00ff00": {
          "Hue": 0,
          "Saturation": 0,
          "Lightness": 0,
          "Color": "#FF40E0D0"
        }
      }
    },
    {
      "Name": "Hair 1",
      "Category": "Rear Hair",
      "Part": "Hair01",
      "Offsets": {},
      "Visible": true,
      "LayerSettings": {
        "ff0000ff": {
          "Hue": 0,
          "Saturation": 0,
          "Lightness": 0,
          "Color": "#FF8A2BE2"
        }
      }
    },
    {
      "Name": "Hair 2",
      "Category": "Front Hair",
      "Part": "Front09",
      "Offsets": {},
      "Visible": true,
      "LayerSettings": {
        "ff0000ff": {
          "Hue": 0,
          "Saturation": 0,
          "Lightness": 0,
          "Color": "#FF8A2BE2"
        }
      }
    },
    {
      "Name": "Mouth",
      "Category": "Mouth",
      "Part": "Mouth08",
      "Offsets": {},
      "Visible": true,
      "LayerSettings": {}
    },
    {
      "Name": "nose",
      "Category": "Nose",
      "Part": "Nose04",
      "Offsets": {},
      "Visible": true,
      "LayerSettings": {}
    },
    {
      "Name": "bottom",
      "Category": "Clothing Bottom",
      "Part": "Bottom02",
      "Offsets": {},
      "Visible": true,
      "LayerSettings": {
        "ff0000ff": {
          "Hue": 0,
          "Saturation": 0,
          "Lightness": 0,
          "Color": "#FF000000"
        }
      }
    },
    {
      "Name": "top",
      "Category": "Clothing Top",
      "Part": "Top03",
      "Offsets": {},
      "Visible": true,
      "LayerSettings": {
        "ff0000ff": {
          "Hue": 0,
          "Saturation": 0,
          "Lightness": 0,
          "Color": "#FFFF60E9"
        },
        "ffffff00": {
          "Hue": 0,
          "Saturation": 0,
          "Lightness": 0,
          "Color": "#FF00FFFF"
        }
      }
    },
    {
      "Name": "jacket",
      "Category": "Clothing Top",
      "Part": "Top09",
      "Offsets": {},
      "Visible": true,
      "LayerSettings": {
        "ffff0000": {
          "Hue": 0,
          "Saturation": 0,
          "Lightness": 0,
          "Color": "#FF00FFC8"
        },
        "ff0000ff": {
          "Hue": 0,
          "Saturation": 0,
          "Lightness": 0,
          "Color": "#FF00FFC8"
        }
      }
    }
  ],
  "BodyType": "Male Lean"
}